Working with Files Using fs
…
---
layout: true

## Row-Bind Data Together
---

Uses `bind_rows()` from .pkg[dplyr]:

```r
> bind_rows(data)
```

```
# A tibble: 12,278 x 6
   Month_Year Hospital_Name Hospital_ID Hospital_Depart… ReferralType
   <chr>      <chr>               <int> <chr>            <chr>       
 1 Aug-15     AMNCH                1049 Paediatric ENT   General Ref…
 2 Aug-15     AMNCH                1049 Paediatric Gast… General Ref…
 3 Aug-15     AMNCH                1049 Paediatric Gene… General Ref…
 4 Aug-15     Bantry Gener…         704 Gastroenterology General Ref…
 5 Aug-15     Bantry Gener…         704 General Medicine General Ref…
 6 Aug-15     Bantry Gener…         704 General Surgery  General Ref…
 7 Aug-15     Bantry Gener…         704 Medicine for th… General Ref…
 8 Aug-15     Bantry Gener…         704 Outreach Dermat… General Ref…
 9 Aug-15     Bantry Gener…         704 Outreach Orthop… General Ref…
10 Aug-15     Bantry Gener…         704 Outreach Surgic… General Ref…
# ... with 12,268 more rows, and 1 more variable: TotalReferrals <int>
```
…
