Session 7
…
str_detect(c("apple", "grape", "banana"), "ap")

[1]  TRUE  TRUE FALSE

Visualize

 apple 
 grape 
 banana 

cr %>% 
  filter(str_detect(histology_behavior_icd_o_3, "CARCINOMA"))

# A tibble: 151 x 21
   medical_record_… sequence_number site_primary_ic… histology_behav…
              <int>           <int> <chr>            <chr>           
 1           687391               1 C509 (BREAST NO… 85202 (LOBULAR …
 2           906008               0 C509 (BREAST NO… 85003 (INFILTRA…
 3           162232               0 C503 (BREAST LI… 85003 (INFILTRA…
 4           710246               0 C503 (BREAST LI… 85003 (INFILTRA…
 5           317251               0 C509 (BREAST NO… 85003 (INFILTRA…
 6           175897               0 C504 (BREAST UO… 85003 (INFILTRA…
 7           197932               0 C504 (BREAST UO… 85003 (INFILTRA…
 8           446531               1 C504 (BREAST UO… 85223 (INFILTRA…
 9           148456               0 C509 (BREAST NO… 85003 (INFILTRA…
10           334557               1 C504 (BREAST UO… 85003 (INFILTRA…
# ... with 141 more rows, and 17 more variables: date_of_diagnosis <date>,
#   age_at_diagnosis <int>, age_current <int>, sex <chr>,
#   spanish_hispanic_origin <chr>, race <chr>, vital_status <chr>,
#   date_last_patient_contact_dead <date>, survival_time_months <int>,
#   dc_cause_of_death <chr>, clinical_tumor_size <dbl>,
#   clinical_size_unit <chr>, tobacco_use_fcds <chr>,
#   summary_of_rx_1st_course <chr>, payer_source_1_at_dx <chr>,
#   patient_history_alcohol <chr>, marital_status_at_dx <chr>

cr %>% filter(
  str_detect(histology_behavior_icd_o_3, "CARCINOMA"),
  !str_detect(histology_behavior_icd_o_3, "INFILTRATING")
)

# A tibble: 37 x 21
   medical_record_… sequence_number site_primary_ic… histology_behav…
              <int>           <int> <chr>            <chr>           
 1           687391               1 C509 (BREAST NO… 85202 (LOBULAR …
 2           341050               1 C569 (OVARY)     84603 (PAPILLAR…
 3           896356               2 C182 (COLON ASC… 81403 (ADENOCAR…
 4           896356               1 C509 (BREAST NO… 85203 (LOBULAR …
 5           644232               0 C508 (BREAST OV… 82113 (TUBULAR …
 6           218883               0 C502 (BREAST UI… 85202 (LOBULAR …
 7           558013               1 C649 (KIDNEY NO… 83123 (RENAL CE…
 8           563418               0 C509 (BREAST NO… 85203 (LOBULAR …
 9           883521               0 C509 (BREAST NO… 81403 (ADENOCAR…
10           289034               1 C504 (BREAST UO… 82113 (TUBULAR …
# ... with 27 more rows, and 17 more variables: date_of_diagnosis <date>,
#   age_at_diagnosis <int>, age_current <int>, sex <chr>,
#   spanish_hispanic_origin <chr>, race <chr>, vital_status <chr>,
#   date_last_patient_contact_dead <date>, survival_time_months <int>,
#   dc_cause_of_death <chr>, clinical_tumor_size <dbl>,
#   clinical_size_unit <chr>, tobacco_use_fcds <chr>,
#   summary_of_rx_1st_course <chr>, payer_source_1_at_dx <chr>,
#   patient_history_alcohol <chr>, marital_status_at_dx <chr>
…
Find all BREAST cancer diagnosis records with a payer source that includes HMOs.

Answer

cr %>% 
  filter(
    str_detect(site_primary_icd_o_3, "BREAST"),
    str_detect(payer_source_1_at_dx, "HMO")
  ) %>% 
  select(medical_record_number, 
         site_primary_icd_o_3, 
         payer_source_1_at_dx)

# A tibble: 69 x 3
   medical_record_number site_primary_icd_o_3 payer_source_1_at_dx   
                   <int> <chr>                <chr>                  
 1                197932 C504 (BREAST UOQ)    MANAGED CARE (HMO, PPO)
 2                446531 C504 (BREAST UOQ)    MANAGED CARE (HMO, PPO)
 3                766840 C504 (BREAST UOQ)    MANAGED CARE (HMO, PPO)
 4                591913 C504 (BREAST UOQ)    MANAGED CARE (HMO, PPO)
 5                182841 C504 (BREAST UOQ)    MANAGED CARE (HMO, PPO)
 6                896356 C509 (BREAST NOS)    MANAGED CARE (HMO, PPO)
 7                218883 C502 (BREAST UIQ)    MANAGED CARE (HMO, PPO)
 8                348966 C504 (BREAST UOQ)    MANAGED CARE (HMO, PPO)
 9                718924 C504 (BREAST UOQ)    MANAGED CARE (HMO, PPO)
10                458035 C504 (BREAST UOQ)    MANAGED CARE (HMO, PPO)
# ... with 59 more rows
…
Answer

cr %>% 
  mutate(
    surgery_count = str_count(summary_of_rx_1st_course, "SURGERY")
  ) %>% 
  group_by(medical_record_number) %>% 
  summarize(n_surgery = sum(surgery_count))

# A tibble: 150 x 2
   medical_record_number n_surgery
                   <int>     <int>
 1                101145         0
 2                101380         0
 3                112743         0
 4                124227         0
 5                140848         0
 6                145185         0
 7                148456         0
 8                149065         0
 9                151416         0
10                158774         1
# ... with 140 more rows

Task 3

I took another look at the data and improved the previous code. What improvement did I make to get this result?

# A tibble: 150 x 2
   medical_record_number n_surgery
                   <int>     <int>
 1                101145         1
 2                101380         1
 3                112743         1
 4                124227         1
 5                140848         1
 6                145185         1
 7                148456         1
 8                149065         1
 9                151416         1
10                158774         1
# ... with 140 more rows
…
Jerde, Jerde and Jerde

(847)437-7174

Durgan, Durgan and Durgan

Regular Expressions

What is a regular expression?

Our diagnosis records include an ICD code for the location of the cancer, but these values include additional text:

select(cr, site_primary_icd_o_3)

# A tibble: 167 x 1
   site_primary_icd_o_3
   <chr>               
 1 C509 (BREAST NOS)   
 2 C509 (BREAST NOS)   
 3 C503 (BREAST LIQ)   
 4 C503 (BREAST LIQ)   
 5 C509 (BREAST NOS)   
 6 C504 (BREAST UOQ)   
 7 C504 (BREAST UOQ)   
 8 C504 (BREAST UOQ)   
 9 C509 (BREAST NOS)   
10 C509 (BREAST NOS)   
# ... with 157 more rows
…
Answer

writeLines("\\\\")

\\

Regular expressions in data

Back to our example from before. How can we extract the ICD code from the diagnosis records?

cr %>% 
  select(site_primary_icd_o_3)

# A tibble: 167 x 1
   site_primary_icd_o_3
   <chr>               
 1 C509 (BREAST NOS)   
 2 C509 (BREAST NOS)   
 3 C503 (BREAST LIQ)   
 4 C503 (BREAST LIQ)   
 5 C509 (BREAST NOS)   
 6 C504 (BREAST UOQ)   
 7 C504 (BREAST UOQ)   
 8 C504 (BREAST UOQ)   
 9 C509 (BREAST NOS)   
10 C509 (BREAST NOS)   
# ... with 157 more rows

cr %>% 
  select(site_primary_icd_o_3) %>% 
  mutate(icd = str______(site_primary_icd_o_3, "_____"))

Answer

cr %>% 
  select(site_primary_icd_o_3) %>% 
  mutate(icd = str_extract(site_primary_icd_o_3, "C5\\d\\d"))

# A tibble: 167 x 2
   site_primary_icd_o_3 icd  
   <chr>                <chr>
 1 C509 (BREAST NOS)    C509 
 2 C509 (BREAST NOS)    C509 
 3 C503 (BREAST LIQ)    C503 
 4 C503 (BREAST LIQ)    C503 
 5 C509 (BREAST NOS)    C509 
 6 C504 (BREAST UOQ)    C504 
 7 C504 (BREAST UOQ)    C504 
 8 C504 (BREAST UOQ)    C504 
 9 C509 (BREAST NOS)    C509 
10 C509 (BREAST NOS)    C509 
# ... with 157 more rows

How can we extract the ICD meaning? Note: it’s inside ( and ), but these are special characters in regular expressions.

Answer

cr %>% 
  select(site_primary_icd_o_3) %>% 
  mutate(
    icd = str_extract(site_primary_icd_o_3, "C5\\d\\d"),
    icd_info = str_extract(site_primary_icd_o_3, "\\(.+\\)"),
    icd_info = str_remove_all(icd_info, "\\(|\\)")
  )

# A tibble: 167 x 3
   site_primary_icd_o_3 icd   icd_info  
   <chr>                <chr> <chr>     
 1 C509 (BREAST NOS)    C509  BREAST NOS
 2 C509 (BREAST NOS)    C509  BREAST NOS
 3 C503 (BREAST LIQ)    C503  BREAST LIQ
 4 C503 (BREAST LIQ)    C503  BREAST LIQ
 5 C509 (BREAST NOS)    C509  BREAST NOS
 6 C504 (BREAST UOQ)    C504  BREAST UOQ
 7 C504 (BREAST UOQ)    C504  BREAST UOQ
 8 C504 (BREAST UOQ)    C504  BREAST UOQ
 9 C509 (BREAST NOS)    C509  BREAST NOS
10 C509 (BREAST NOS)    C509  BREAST NOS
# ... with 157 more rows
